<?xml version="1.0" encoding="UTF-8" standalone="no"?>
<!-- Created with Inkscape (http://www.inkscape.org/) -->

<svg
   width="250mm"
   height="176mm"
   viewBox="0 0 250 176"
   version="1.1"
   id="svg1"
   inkscape:version="1.3 (0e150ed6c4, 2023-07-21)"
   sodipodi:docname="pipeline.svg"
   inkscape:export-filename="../pipeline.png"
   inkscape:export-xdpi="96"
   inkscape:export-ydpi="96"
   xmlns:inkscape="http://www.inkscape.org/namespaces/inkscape"
   xmlns:sodipodi="http://sodipodi.sourceforge.net/DTD/sodipodi-0.dtd"
   xmlns="http://www.w3.org/2000/svg"
   xmlns:svg="http://www.w3.org/2000/svg">
  <sodipodi:namedview
     id="namedview1"
     pagecolor="#ffffff"
     bordercolor="#000000"
     borderopacity="0.25"
     inkscape:showpageshadow="2"
     inkscape:pageopacity="0.0"
     inkscape:pagecheckerboard="0"
     inkscape:deskcolor="#d1d1d1"
     inkscape:document-units="mm"
     inkscape:zoom="0.9612704"
     inkscape:cx="462.40891"
     inkscape:cy="349.0173"
     inkscape:window-width="1920"
     inkscape:window-height="1011"
     inkscape:window-x="0"
     inkscape:window-y="0"
     inkscape:window-maximized="1"
     inkscape:current-layer="layer2"
     inkscape:export-bgcolor="#ffffffff" />
  <defs
     id="defs1">
    <marker
       style="overflow:visible"
       id="marker15"
       refX="0"
       refY="0"
       orient="auto-start-reverse"
       inkscape:stockid="Dart arrow"
       markerWidth="1"
       markerHeight="1"
       viewBox="0 0 1 1"
       inkscape:isstock="true"
       inkscape:collect="always"
       preserveAspectRatio="xMidYMid">
      <path
         style="fill:context-stroke;fill-rule:evenodd;stroke:none"
         d="M 0,0 5,-5 -12.5,0 5,5 Z"
         transform="scale(-0.5)"
         id="path15" />
    </marker>
    <marker
       style="overflow:visible"
       id="DartArrow"
       refX="0"
       refY="0"
       orient="auto-start-reverse"
       inkscape:stockid="Dart arrow"
       markerWidth="1"
       markerHeight="1"
       viewBox="0 0 1 1"
       inkscape:isstock="true"
       inkscape:collect="always"
       preserveAspectRatio="xMidYMid">
      <path
         style="fill:context-stroke;fill-rule:evenodd;stroke:none"
         d="M 0,0 5,-5 -12.5,0 5,5 Z"
         transform="scale(-0.5)"
         id="path6" />
    </marker>
    <marker
       style="overflow:visible"
       id="Stop"
       refX="0"
       refY="0"
       orient="auto"
       inkscape:stockid="Stop"
       markerWidth="4"
       markerHeight="4"
       viewBox="0 0 1 1"
       inkscape:isstock="true"
       inkscape:collect="always"
       preserveAspectRatio="xMidYMid">
      <path
         style="fill:none;stroke:context-stroke;stroke-width:1"
         d="M 0,4 V -4"
         id="path23" />
    </marker>
    <marker
       style="overflow:visible"
       id="Square"
       refX="0"
       refY="0"
       orient="auto"
       inkscape:stockid="Square"
       markerWidth="1"
       markerHeight="1"
       viewBox="0 0 1 1"
       inkscape:isstock="true"
       inkscape:collect="always"
       preserveAspectRatio="xMidYMid">
      <path
         transform="scale(0.5)"
         style="fill:context-stroke;fill-rule:evenodd;stroke:none"
         d="M -5,-5 V 5 H 5 V -5 Z"
         id="path18" />
    </marker>
    <marker
       style="overflow:visible"
       id="Triangle"
       refX="0"
       refY="0"
       orient="auto-start-reverse"
       inkscape:stockid="Triangle arrow"
       markerWidth="1"
       markerHeight="1"
       viewBox="0 0 1 1"
       inkscape:isstock="true"
       inkscape:collect="always"
       preserveAspectRatio="xMidYMid">
      <path
         transform="scale(0.5)"
         style="fill:context-stroke;fill-rule:evenodd;stroke:context-stroke;stroke-width:1pt"
         d="M 5.77,0 -2.88,5 V -5 Z"
         id="path135" />
    </marker>
    <marker
       style="overflow:visible"
       id="Triangle-8"
       refX="0"
       refY="0"
       orient="auto-start-reverse"
       inkscape:stockid="Triangle arrow"
       markerWidth="1"
       markerHeight="1"
       viewBox="0 0 1 1"
       inkscape:isstock="true"
       inkscape:collect="always"
       preserveAspectRatio="xMidYMid">
      <path
         transform="scale(0.5)"
         style="fill:context-stroke;fill-rule:evenodd;stroke:context-stroke;stroke-width:1pt"
         d="M 5.77,0 -2.88,5 V -5 Z"
         id="path135-9" />
    </marker>
    <marker
       style="overflow:visible"
       id="Triangle-3"
       refX="0"
       refY="0"
       orient="auto-start-reverse"
       inkscape:stockid="Triangle arrow"
       markerWidth="1"
       markerHeight="1"
       viewBox="0 0 1 1"
       inkscape:isstock="true"
       inkscape:collect="always"
       preserveAspectRatio="xMidYMid">
      <path
         transform="scale(0.5)"
         style="fill:context-stroke;fill-rule:evenodd;stroke:context-stroke;stroke-width:1pt"
         d="M 5.77,0 -2.88,5 V -5 Z"
         id="path135-0" />
    </marker>
    <marker
       style="overflow:visible"
       id="Triangle-5"
       refX="0"
       refY="0"
       orient="auto-start-reverse"
       inkscape:stockid="Triangle arrow"
       markerWidth="1"
       markerHeight="1"
       viewBox="0 0 1 1"
       inkscape:isstock="true"
       inkscape:collect="always"
       preserveAspectRatio="xMidYMid">
      <path
         transform="scale(0.5)"
         style="fill:context-stroke;fill-rule:evenodd;stroke:context-stroke;stroke-width:1pt"
         d="M 5.77,0 -2.88,5 V -5 Z"
         id="path135-4" />
    </marker>
    <marker
       style="overflow:visible"
       id="Triangle-5-6"
       refX="0"
       refY="0"
       orient="auto-start-reverse"
       inkscape:stockid="Triangle arrow"
       markerWidth="1"
       markerHeight="1"
       viewBox="0 0 1 1"
       inkscape:isstock="true"
       inkscape:collect="always"
       preserveAspectRatio="xMidYMid">
      <path
         transform="scale(0.5)"
         style="fill:context-stroke;fill-rule:evenodd;stroke:context-stroke;stroke-width:1pt"
         d="M 5.77,0 -2.88,5 V -5 Z"
         id="path135-4-9" />
    </marker>
  </defs>
  <g
     inkscape:label="Layer 1"
     inkscape:groupmode="layer"
     id="layer1"
     sodipodi:insensitive="true">
    <rect
       style="fill:#f2f2f2;stroke:none;stroke-width:0.264999;stroke-linecap:square;stroke-dasharray:0.264999, 0.794999"
       id="rect9-5-8"
       width="222.25"
       height="39.6875"
       x="13.846092"
       y="119.03992" />
    <rect
       style="fill:#d7e3f4;stroke:none;stroke-width:0.264583;stroke-linecap:square;stroke-dasharray:none"
       id="rect10"
       width="36.011974"
       height="13.667947"
       x="131.37567"
       y="133.41644" />
    <rect
       style="fill:#d7e3f4;stroke:none;stroke-width:0.264583;stroke-linecap:square;stroke-dasharray:none"
       id="rect10-1"
       width="36.011974"
       height="13.667947"
       x="188.68015"
       y="132.82907" />
    <rect
       style="fill:#f2f2f2;stroke:none;stroke-width:0.264999;stroke-linecap:square;stroke-dasharray:0.264999, 0.794999"
       id="rect9-5"
       width="222.25"
       height="39.6875"
       x="13.903908"
       y="68.15625" />
    <rect
       style="fill:#e3d7f4;stroke:none;stroke-width:0.264999;stroke-linecap:square;stroke-dasharray:0.264999, 0.794999"
       id="rect10-4"
       width="33.247669"
       height="25.50367"
       x="132.75784"
       y="76.614891" />
    <rect
       style="fill:#e3d7f4;stroke:none;stroke-width:0.264999;stroke-linecap:square;stroke-dasharray:0.264999, 0.794999"
       id="rect10-4-1"
       width="33.247669"
       height="25.50367"
       x="75.453354"
       y="76.926041" />
    <rect
       style="fill:#f2f2f2;stroke:none;stroke-width:0.264999;stroke-linecap:square;stroke-dasharray:0.264999, 0.794999"
       id="rect9"
       width="222.25"
       height="39.6875"
       x="13.875"
       y="17.27257" />
    <ellipse
       style="fill:#ffe6d5;stroke:none;stroke-width:0.264583;stroke-linecap:square;stroke-dasharray:none"
       id="path9-0"
       cx="92.07653"
       cy="38.810562"
       rx="18.272081"
       ry="11.872214" />
    <ellipse
       style="fill:#ffe6d5;stroke:none;stroke-width:0.264583;stroke-linecap:square;stroke-dasharray:none"
       id="path9-0-6"
       cx="34.772072"
       cy="38.48354"
       rx="18.272081"
       ry="11.872214" />
    <text
       xml:space="preserve"
       style="font-size:4.93889px;font-family:'Red Hat Text';-inkscape-font-specification:'Red Hat Text';text-align:center;text-anchor:middle;fill:#808080;stroke:none;stroke-width:0.264999;stroke-linecap:square;stroke-dasharray:0.264999, 0.794999"
       x="63.318123"
       y="29.532459"
       id="text1"><tspan
         sodipodi:role="line"
         id="tspan1"
         style="font-size:4.93889px;fill:#808080;stroke:none;stroke-width:0.265"
         x="63.318123"
         y="29.532459">merge</tspan><tspan
         sodipodi:role="line"
         style="font-size:4.93889px;fill:#808080;stroke:none;stroke-width:0.265"
         x="63.318123"
         y="35.70607"
         id="tspan2">request</tspan></text>
    <text
       xml:space="preserve"
       style="font-size:4.93889px;font-family:'Red Hat Text';-inkscape-font-specification:'Red Hat Text';text-align:center;text-anchor:middle;fill:#808080;stroke:none;stroke-width:0.264999;stroke-linecap:square;stroke-dasharray:0.264999, 0.794999"
       x="103.74265"
       y="63.862026"
       id="text1-4"><tspan
         sodipodi:role="line"
         style="font-size:4.93889px;fill:#808080;stroke:none;stroke-width:0.265"
         x="103.74265"
         y="63.862026"
         id="tspan2-3">build rpm</tspan></text>
    <text
       xml:space="preserve"
       style="font-size:4.93889px;font-family:'Red Hat Text';-inkscape-font-specification:'Red Hat Text';text-align:center;text-anchor:middle;fill:#808080;stroke:none;stroke-width:0.264999;stroke-linecap:square;stroke-dasharray:0.264999, 0.794999"
       x="166.94693"
       y="114.7457"
       id="text1-4-0"><tspan
         sodipodi:role="line"
         style="font-size:4.93889px;fill:#808080;stroke:none;stroke-width:0.265"
         x="166.94693"
         y="114.7457"
         id="tspan2-3-4">build compose</tspan></text>
    <text
       xml:space="preserve"
       style="font-size:6.35px;font-family:'Red Hat Text';-inkscape-font-specification:'Red Hat Text';text-align:center;text-anchor:middle;fill:#aa4400;stroke:none;stroke-width:0.264999;stroke-linecap:square;stroke-dasharray:0.264999, 0.794999"
       x="34.836208"
       y="36.517727"
       id="text3"><tspan
         sodipodi:role="line"
         id="tspan3"
         style="fill:#aa4400;stroke-width:0.265"
         x="34.836208"
         y="36.517727">custom</tspan><tspan
         sodipodi:role="line"
         style="fill:#aa4400;stroke-width:0.265"
         x="34.836208"
         y="44.455227"
         id="tspan4">fork</tspan></text>
    <text
       xml:space="preserve"
       style="font-size:6.35px;font-family:'Red Hat Text';-inkscape-font-specification:'Red Hat Text';text-align:center;text-anchor:middle;fill:#aa4400;stroke:none;stroke-width:0.264999;stroke-linecap:square;stroke-dasharray:0.264999, 0.794999"
       x="92.010498"
       y="36.517727"
       id="text5"><tspan
         sodipodi:role="line"
         id="tspan5"
         style="fill:#aa4400;stroke-width:0.265"
         x="92.010498"
         y="36.517727">dist-git</tspan><tspan
         sodipodi:role="line"
         style="fill:#aa4400;stroke-width:0.265"
         x="92.010498"
         y="44.455227"
         id="tspan6">repo</tspan></text>
    <text
       xml:space="preserve"
       style="font-size:6.35px;font-family:'Red Hat Text';-inkscape-font-specification:'Red Hat Text';text-align:center;text-anchor:middle;fill:#11002b;stroke:none;stroke-width:0.264999;stroke-linecap:square;stroke-dasharray:0.264999, 0.794999"
       x="92.042244"
       y="91.011375"
       id="text7"><tspan
         sodipodi:role="line"
         style="fill:#11002b;stroke-width:0.265"
         x="92.042244"
         y="91.011375"
         id="tspan8">-gate</tspan></text>
    <text
       xml:space="preserve"
       style="font-size:6.35px;font-family:'Red Hat Text';-inkscape-font-specification:'Red Hat Text';text-align:center;text-anchor:middle;fill:#11002b;stroke:none;stroke-width:0.264999;stroke-linecap:square;stroke-dasharray:0.264999, 0.794999"
       x="149.42612"
       y="91.011375"
       id="text9"><tspan
         sodipodi:role="line"
         id="tspan9"
         style="fill:#11002b;stroke-width:0.265"
         x="149.42612"
         y="91.011375">-pending</tspan></text>
    <text
       xml:space="preserve"
       style="font-size:6.35px;font-family:'Red Hat Text';-inkscape-font-specification:'Red Hat Text';text-align:center;text-anchor:middle;fill:#00112b;stroke:none;stroke-width:0.264999;stroke-linecap:square;stroke-dasharray:0.264999, 0.794999"
       x="149.19434"
       y="141.89507"
       id="text7-6"><tspan
         sodipodi:role="line"
         style="fill:#00112b;stroke-width:0.265"
         x="149.19434"
         y="141.89507"
         id="tspan8-3">nightly</tspan></text>
    <text
       xml:space="preserve"
       style="font-size:6.35px;font-family:'Red Hat Text';-inkscape-font-specification:'Red Hat Text';text-align:center;text-anchor:middle;fill:#00112b;stroke:none;stroke-width:0.264999;stroke-linecap:square;stroke-dasharray:0.264999, 0.794999"
       x="206.56232"
       y="141.89507"
       id="text9-8"><tspan
         sodipodi:role="line"
         id="tspan9-5"
         style="fill:#00112b;stroke-width:0.265"
         x="206.56232"
         y="141.89507">mirrors</tspan></text>
    <text
       xml:space="preserve"
       style="font-size:4.93889px;font-family:'Red Hat Text';-inkscape-font-specification:'Red Hat Text';text-align:center;text-anchor:middle;fill:#00112b;stroke:none;stroke-width:0.264999;stroke-linecap:square;stroke-dasharray:0.264999, 0.794999"
       x="216.85889"
       y="157.69521"
       id="text10"><tspan
         sodipodi:role="line"
         id="tspan10"
         style="font-size:4.93889px;fill:#00112b;stroke:none;stroke-width:0.265"
         x="216.85889"
         y="157.69521">composes</tspan></text>
    <text
       xml:space="preserve"
       style="font-size:4.93889px;font-family:'Red Hat Text';-inkscape-font-specification:'Red Hat Text';text-align:center;text-anchor:middle;fill:#11002b;stroke:none;stroke-width:0.264999;stroke-linecap:square;stroke-dasharray:0.264999, 0.794999"
       x="216.85889"
       y="106.81151"
       id="text10-8"><tspan
         sodipodi:role="line"
         id="tspan10-5"
         style="font-size:4.93889px;fill:#11002b;stroke:none;stroke-width:0.265"
         x="216.85889"
         y="106.81151">Koji tags</tspan></text>
    <text
       xml:space="preserve"
       style="font-size:4.93889px;font-family:'Red Hat Text';-inkscape-font-specification:'Red Hat Text';text-align:center;text-anchor:middle;fill:#aa4400;stroke:none;stroke-width:0.264999;stroke-linecap:square;stroke-dasharray:0.264999, 0.794999"
       x="207.81332"
       y="55.878452"
       id="text10-8-8"><tspan
         sodipodi:role="line"
         id="tspan10-5-5"
         style="font-size:4.93889px;fill:#aa4400;stroke:none;stroke-width:0.265"
         x="207.81332"
         y="55.878452">Gitlab repositories</tspan></text>
    <path
       style="fill:none;stroke:#808080;stroke-width:0.79375;stroke-linecap:square;stroke-dasharray:3.175, 0.79375;stroke-dashoffset:0;marker-mid:url(#Square);marker-end:url(#Triangle)"
       d="m 53.620065,38.483541 h 18.80122"
       id="path11" />
    <path
       style="fill:none;stroke:#808080;stroke-width:0.264583;stroke-linecap:square;stroke-dasharray:none;marker-end:url(#Triangle-5)"
       d="m 92.076531,54.000167 v 18.80122"
       id="path11-5" />
    <path
       style="fill:none;stroke:#808080;stroke-width:0.264583;stroke-linecap:square;stroke-dasharray:none;marker-end:url(#Triangle-5-6)"
       d="m 149.38166,104.99391 v 22.62324"
       id="path11-5-4"
       sodipodi:nodetypes="cc" />
    <path
       style="fill:none;stroke:#808080;stroke-width:0.79375;stroke-linecap:square;stroke-dasharray:3.175, 0.79375;stroke-dashoffset:0;marker-mid:url(#Square);marker-end:url(#Triangle-8)"
       d="M 110.92517,89.677875 H 129.7264"
       id="path11-7" />
    <path
       style="fill:#ff0000;stroke:#808080;stroke-width:0.79375;stroke-linecap:square;stroke-dasharray:3.175, 0.79375;stroke-dashoffset:0;marker-mid:url(#Stop);marker-end:url(#Triangle-3)"
       d="m 168.22965,140.25041 h 18.80122"
       id="path11-0"
       inkscape:export-filename="path11-0.png"
       inkscape:export-xdpi="96"
       inkscape:export-ydpi="96" />
  </g>
  <g
     inkscape:groupmode="layer"
     id="layer2"
     inkscape:label="Overlay - gates">
    <path
       style="fill:none;stroke:#d40000;stroke-width:0.264583;stroke-linecap:square;stroke-dasharray:1.05833, 0.264583;stroke-dashoffset:0;marker-end:url(#DartArrow)"
       d="M 30.681037,124.24336 C 21.366843,95.2955 58.047328,45.229156 58.047328,45.229156"
       id="path12"
       sodipodi:nodetypes="cc" />
    <path
       style="fill:none;stroke:#d40000;stroke-width:0.264583;stroke-linecap:square;stroke-dasharray:1.05833, 0.264583;stroke-dashoffset:0;marker-end:url(#DartArrow)"
       d="m 43.430398,131.56204 c 25.24928,-3.07176 59.096692,-4.1566 74.154442,-31.935758"
       id="path13"
       sodipodi:nodetypes="cc" />
    <path
       style="fill:none;stroke:#d40000;stroke-width:0.264583;stroke-linecap:square;stroke-dasharray:1.05833, 0.264583;stroke-dashoffset:0;marker-end:url(#marker15)"
       d="m 35.495645,142.79648 c 29.415562,15.0384 106.677245,28.24901 138.020585,3.89212"
       id="path14"
       sodipodi:nodetypes="cc" />
    <text
       xml:space="preserve"
       style="font-size:4.9389px;font-family:'Red Hat Text';-inkscape-font-specification:'Red Hat Text';text-align:center;text-anchor:middle;fill:#d40000;stroke:none;stroke-width:0.79375;stroke-linecap:square;stroke-dasharray:3.175, 0.79375;stroke-dashoffset:0"
       x="27.672712"
       y="131.6474"
       id="text15"><tspan
         sodipodi:role="line"
         id="tspan15"
         style="fill:#d40000;stroke:none;stroke-width:0.79375"
         x="27.672712"
         y="131.6474">integration</tspan><tspan
         sodipodi:role="line"
         style="fill:#d40000;stroke:none;stroke-width:0.79375"
         x="27.672712"
         y="137.82103"
         id="tspan16">gates</tspan></text>
  </g>
</svg>
